BEGINING
Connection:	Ethernet	Sat Mar 19 12:47:46 GMT 2016
IP_address:	192.168.1.105	Sat Mar 19 12:47:46 GMT 2016
pinging_192.168.1.105:	successful	Sat Mar 19 12:47:46 GMT 2016
pinging_8.8.8.8:	unsuccessful	Sat Mar 19 12:47:49 GMT 2016
pinging_tcdrobotics2:	successful	Sat Mar 19 12:47:53 GMT 2016
Clock offset ( to master):	-0.000006 sec	Sat Mar 19 12:47:56 GMT 2016
Clock offset ( to master):	acceptable	Sat Mar 19 12:47:56 GMT 2016
ROS_HOSTNAME tcdrobotics3 		Sat Mar 19 12:48:03 GMT 2016
ROS_IP: tcdrobotics3 	Sat Mar 19 12:48:03 GMT 2016
ROS_MASTER_URI: http://tcdrobotics3:11311 	Sat Mar 19 12:48:03 GMT 2016
Battery Level: 11.9 V Sat Mar 19 12:48:03 GMT 2016
************** Launching ROS core on tcd-robotics-3 **************** Sat Mar 19 12:48:03 GMT 2016
