BEGINING
Connection:	Ethernet	Thu Mar 10 19:39:42 GMT 2016
IP_address:	192.168.1.105	Thu Mar 10 19:39:42 GMT 2016
Connection:	Wifi	Thu Mar 10 19:39:42 GMT 2016
IP_address:	10.6.91.8	Thu Mar 10 19:39:42 GMT 2016
pinging_192.168.1.105:	successful	Thu Mar 10 19:39:42 GMT 2016
pinging_8.8.8.8:	unsuccessful	Thu Mar 10 19:39:45 GMT 2016
pinging_tcdrobotics2:	successful	Thu Mar 10 19:39:49 GMT 2016
Clock offset ( to master):		Thu Mar 10 19:39:52 GMT 2016
Clock offset ( to master):	acceptable	Thu Mar 10 19:39:52 GMT 2016
ROS_HOSTNAME tcdrobotics3
ROS_IP: tcdrobotics3
ROS_MASTER_URI: http://tcdrobotics3:11311
Communication with /dev/roboclaw_wheels successful
Battery Level: 11.9 V
************** Launching ROS core on tcd-robotics-3 ****************
