BEGINING
IP_address:	192.168.1.105	Mon Mar 14 23:37:20 GMT 2016
pinging_192.168.1.105:	successful	Mon Mar 14 23:37:20 GMT 2016
Clock offset ( to master):	-0.000007 sec	Mon Mar 14 23:37:34 GMT 2016
Clock offset ( to master):	acceptable	Mon Mar 14 23:37:34 GMT 2016
Clock offset ( to master):	-0.000009 sec	Mon Mar 14 23:37:56 GMT 2016
Clock offset ( to master):	acceptable	Mon Mar 14 23:37:56 GMT 2016
Clock offset ( to master):	-0.000007 sec	Mon Mar 14 23:38:21 GMT 2016
Clock offset ( to master):	acceptable	Mon Mar 14 23:38:21 GMT 2016
