BEGINING
IP_address:	192.168.1.105	Mon Mar 14 23:39:26 GMT 2016
Clock offset ( to master):		Mon Mar 14 23:39:29 GMT 2016
Clock offset ( to master):	acceptable	Mon Mar 14 23:39:29 GMT 2016
Clock offset ( to master):	-0.000008 sec	Mon Mar 14 23:40:18 GMT 2016
Clock offset ( to master):	acceptable	Mon Mar 14 23:40:18 GMT 2016
Clock offset ( to master):	-0.000004 sec	Mon Mar 14 23:46:57 GMT 2016
Clock offset ( to master):	acceptable	Mon Mar 14 23:46:57 GMT 2016
