BEGINING
Connection:	Ethernet	Sat Mar 19 12:48:07 GMT 2016
IP_address:	192.168.1.105	Sat Mar 19 12:48:07 GMT 2016
Connection:	Wifi	Sat Mar 19 12:48:07 GMT 2016
IP_address:	10.6.91.8	Sat Mar 19 12:48:07 GMT 2016
pinging_192.168.1.105:	successful	Sat Mar 19 12:48:07 GMT 2016
pinging_8.8.8.8:	unsuccessful	Sat Mar 19 12:48:10 GMT 2016
pinging_tcdrobotics2:	successful	Sat Mar 19 12:48:14 GMT 2016
Clock offset ( to master):	-0.000003 sec	Sat Mar 19 12:48:17 GMT 2016
Clock offset ( to master):	acceptable	Sat Mar 19 12:48:17 GMT 2016
ROS_HOSTNAME tcdrobotics3 		Sat Mar 19 12:48:23 GMT 2016
ROS_IP: tcdrobotics3 	Sat Mar 19 12:48:23 GMT 2016
ROS_MASTER_URI: http://tcdrobotics3:11311 	Sat Mar 19 12:48:23 GMT 2016
Battery Level: 11.9 V Sat Mar 19 12:48:24 GMT 2016
************** Launching ROS core on tcd-robotics-3 **************** Sat Mar 19 12:48:24 GMT 2016
Communication with sensor successful	Sat Mar 19 12:48:29 GMT 2016
Communication with /dev/roboclaw_wheels successful	Sat Mar 19 13:31:48 GMT 2016
Communication with /dev/roboclaw_wheels successful	Sat Mar 19 13:36:10 GMT 2016
