BEGINING
Connection:	Ethernet	Tue Mar 22 03:36:48 GMT 2016
IP_address:	192.168.1.105	Tue Mar 22 03:36:48 GMT 2016
Connection:	Wifi	Tue Mar 22 03:36:48 GMT 2016
IP_address:	10.6.91.8	Tue Mar 22 03:36:48 GMT 2016
pinging_192.168.1.105:	successful	Tue Mar 22 03:36:48 GMT 2016
pinging_8.8.8.8:	unsuccessful	Tue Mar 22 03:36:51 GMT 2016
pinging_tcdrobotics2:	successful	Tue Mar 22 03:36:55 GMT 2016
Clock offset ( to master):	-0.000005 sec	Tue Mar 22 03:36:58 GMT 2016
Clock offset ( to master):	acceptable	Tue Mar 22 03:36:58 GMT 2016
ROS_HOSTNAME tcdrobotics3 		Tue Mar 22 03:37:04 GMT 2016
ROS_IP: tcdrobotics3 	Tue Mar 22 03:37:04 GMT 2016
ROS_MASTER_URI: http://tcdrobotics3:11311 	Tue Mar 22 03:37:04 GMT 2016
Battery Level: 11.9 V Tue Mar 22 03:37:04 GMT 2016
************** Launching ROS core on tcd-robotics-3 **************** Tue Mar 22 03:37:04 GMT 2016
Communication with /dev/roboclaw_wheels successful	Tue Mar 22 03:39:00 GMT 2016
