BEGINING
Connection:	Ethernet	Thu Mar 17 15:05:13 GMT 2016
IP_address:	192.168.1.105	Thu Mar 17 15:05:13 GMT 2016
Connection:	Wifi	Thu Mar 17 15:05:13 GMT 2016
IP_address:	10.6.91.8	Thu Mar 17 15:05:13 GMT 2016
pinging_192.168.1.105:	successful	Thu Mar 17 15:05:13 GMT 2016
pinging_8.8.8.8:	unsuccessful	Thu Mar 17 15:05:16 GMT 2016
pinging_tcdrobotics2:	successful	Thu Mar 17 15:05:20 GMT 2016
Clock offset ( to master):	-0.000003 sec	Thu Mar 17 15:05:23 GMT 2016
Clock offset ( to master):	acceptable	Thu Mar 17 15:05:23 GMT 2016
ROS_HOSTNAME tcdrobotics3
ROS_IP: tcdrobotics3
ROS_MASTER_URI: http://tcdrobotics3:11311
************** Launching ROS core on tcd-robotics-3 ****************
