BEGINING
Connection:	Wifi	Fri Mar 18 13:10:06 GMT 2016
IP_address:	10.6.91.8	Fri Mar 18 13:10:06 GMT 2016
pinging_10.6.91.8:	successful	Fri Mar 18 13:10:06 GMT 2016
pinging_8.8.8.8:	unsuccessful	Fri Mar 18 13:10:09 GMT 2016
pinging_tcdrobotics2:	unsuccessful	Fri Mar 18 13:10:14 GMT 2016
Clock offset ( to master):		Fri Mar 18 13:10:18 GMT 2016
Clock offset ( to master):	acceptable	Fri Mar 18 13:10:18 GMT 2016
ROS_HOSTNAME tcdrobotics3 		Fri Mar 18 13:12:25 GMT 2016
ROS_IP: tcdrobotics3 	Fri Mar 18 13:12:25 GMT 2016
ROS_MASTER_URI: http://tcdrobotics3:11311 	Fri Mar 18 13:12:25 GMT 2016
Battery Level: 11.9 V Fri Mar 18 13:12:25 GMT 2016
************** Launching ROS core on tcd-robotics-3 **************** Fri Mar 18 13:12:25 GMT 2016
